-------------------------------------------------------------------------------
Test set: com.spring.boot.docker.demo.SpringBootDockerApplicationTests
-------------------------------------------------------------------------------
Tests run: 1, Failures: 0, Errors: 0, Skipped: 0, Time elapsed: 8.126 s -- in com.spring.boot.docker.demo.SpringBootDockerApplicationTests
